SR-5101 Advanced Research Skills
…
---
 
GOAL: "Adjust" the blue line (regression slope and intercept) such that the red lines (errors) are as small as possible"

<img src="lecture3_files/figure-html/unnamed-chunk-4-1.png" width="800px" />

---

```r
# povdat <- readr::read_csv("poverty.csv") # load data set first
povdat
```

```
## # A tibble: 51 x 6
##    state         poverty hs_grad home_own median_income party_maj
##    <chr>           <dbl>   <dbl>    <dbl>         <dbl> <chr>    
##  1 Alabama         19.9     76.8     73.4        36963. Rep      
##  2 Alaska          12.3     86.6     63.2        59351. Rep      
##  3 Arizona         19.0     81.8     69.7        42418. Rep      
##  4 Arkansas        20.0     78.9     71.2        34983. Rep      
##  5 California      14.2     82.5     63.3        55266. Dem      
##  6 Colorado        12.9     88.1     72.1        50136. Dem      
##  7 Connecticut      8.31    89.1     71.7        68935. Dem      
##  8 Delaware        11.5     86.2     74.7        55568. Dem      
##  9 District of …   18.5     86.5     43.5        58526  Dem      
## 10 Florida         16.0     82.2     74.6        44269. Rep      
## # … with 41 more rows
```
…
layout: true

# Binary variables

---

Consider again the `mpg` data set. Any difference in consumption of high vs low displacement engines?

```r
mpg
```

```
## # A tibble: 234 x 11
##    manufacturer model displ  year   cyl trans drv     cty   hwy
##    <chr>        <chr> <dbl> <int> <int> <chr> <chr> <int> <int>
##  1 audi         a4      1.8  1999     4 auto… f        18    29
##  2 audi         a4      1.8  1999     4 manu… f        21    29
##  3 audi         a4      2    2008     4 manu… f        20    31
##  4 audi         a4      2    2008     4 auto… f        21    30
##  5 audi         a4      2.8  1999     6 auto… f        16    26
##  6 audi         a4      2.8  1999     6 manu… f        18    26
##  7 audi         a4      3.1  2008     6 auto… f        18    27
##  8 audi         a4 q…   1.8  1999     4 manu… 4        18    26
##  9 audi         a4 q…   1.8  1999     4 auto… 4        16    25
## 10 audi         a4 q…   2    2008     4 manu… 4        20    28
## # … with 224 more rows, and 2 more variables: fl <chr>,
## #   class <chr>
```
…
# Multiple regression

---

## Adding more explanatory variables

Back to the poverty data set again.

```r
povdat
```

```
## # A tibble: 51 x 6
##    state         poverty hs_grad home_own median_income party_maj
##    <chr>           <dbl>   <dbl>    <dbl>         <dbl> <chr>    
##  1 Alabama         19.9     76.8     73.4        36963. Rep      
##  2 Alaska          12.3     86.6     63.2        59351. Rep      
##  3 Arizona         19.0     81.8     69.7        42418. Rep      
##  4 Arkansas        20.0     78.9     71.2        34983. Rep      
##  5 California      14.2     82.5     63.3        55266. Dem      
##  6 Colorado        12.9     88.1     72.1        50136. Dem      
##  7 Connecticut      8.31    89.1     71.7        68935. Dem      
##  8 Delaware        11.5     86.2     74.7        55568. Dem      
##  9 District of …   18.5     86.5     43.5        58526  Dem      
## 10 Florida         16.0     82.2     74.6        44269. Rep      
## # … with 41 more rows
```
…
---
layout: true

### Normality assumption

---

Revisit the titanic data set

```r
(titanic <- readr::read_csv("titanic.csv"))
```

```
## # A tibble: 891 x 12
##    PassengerId Survived Pclass Name  Sex     Age SibSp Parch
##          <dbl>    <dbl>  <dbl> <chr> <chr> <dbl> <dbl> <dbl>
##  1           1        0      3 Brau… male     22     1     0
##  2           2        1      1 Cumi… fema…    38     1     0
##  3           3        1      3 Heik… fema…    26     0     0
##  4           4        1      1 Futr… fema…    35     1     0
##  5           5        0      3 Alle… male     35     0     0
##  6           6        0      3 Mora… male     NA     0     0
##  7           7        0      1 McCa… male     54     0     0
##  8           8        0      3 Pals… male      2     3     1
##  9           9        1      3 John… fema…    27     0     2
## 10          10        1      2 Nass… fema…    14     1     0
## # … with 881 more rows, and 4 more variables: Ticket <chr>,
## #   Fare <dbl>, Cabin <chr>, Embarked <chr>
```
…
